{
    "db": {
        "database": "dbname",
        "user": "dbuser",
        "password": "dbpassword",
        "host": "localhost",
        "port": 3306
    },
    "sessions": {
        "secret": "random-secret",
        "resave": true,
        "saveUninitialized": true
    },
    "staticFolder": "public_html/dist"
}